1.,ഉഴിഞ്ഞ സമൂലം (ഉണക്ക),"Ballon Vine, Heart’s pea (Dried)",Cardiospermum  halicacabum,,150
2.,ഉഴിഞ്ഞ സമൂലം (പച്ച),"Ballon Vine, Heart’s pea (Fresh)",Cardiospermum  halicacabum,,1200
3.,എരുമക്കള്ളി സമൂലം (പച്ച),"Mexican poppy, Prickly pappy (Fresh)",Agremone  mexicana,,50
4.,എലിച്ചെവിയന്‍ സമൂലം (ഉണക്ക),(dried),Emilia  sonchifolia,,125
5.,കണ്ടകാരി സമൂലം (ഉണക്ക),(Dried),Solanum  surattense,,1800
6.,"കരിം കുറിഞ്ഞി സമൂലം (പച്ച)Wood size up to 1""(1 Bundle below 50 Kg.)",(Fresh),Strobilanthes  ciliatus,1”,24000
7.,കരിന്തുമ്പ സമൂലം  (പച്ച),Malabar catmint (Fresh),Anisomeles  malabarica,,5
8.,കരിന്തുമ്പ സമൂലം (ഉണക്ക),Malabar catmint (dried),Anisomeles  malabarica,,125
9.,കാട്ടുപടവലം സമൂലം ഉണക്ക ,Wild snake gourd,Trichosanthes lobata,,"11,000"
10.,കിരിയാത്ത് സമൂലം  (ഉണക്ക),"Green chiretta, creat (dried)",Andrographis paniculata/swertia Chirata,,3500
11.,കീഴാര്‍നെല്ലി സമൂലം  (ഉണക്ക),(Dried),Phyllanthus  niruri,,800
12.,കീഴാര്‍നെല്ലി സമൂലം  (പച്ച),(Fresh),Phyllanthus  niruri,,2800
13.,കുഴിമുണ്ടന്‍ സമൂലം (പച്ച),(Fresh),Orthosiphon glabratus,,30
14.,കൊഴുപ്പ സമൂലം(ഉണക്ക),Common  Purslane,Portulaca oleracea,,20
15.,ചതുര മുല്ല സമൂലം (പച്ച),,myxopyrum  smilacifolium,,10
16.,ചെറുകടലാടി സമൂലം  (ഉണക്ക),Small prickly chaff-flower plant (dried),Cyathula  prostrata,,75
17.,ചെറുകടലാടി സമൂലം  (പച്ച),Small prickly chaff-flower plant (Fresh),Cyathula  prostrata,,2200
18.,ചെറുചീര സമൂലം (പച്ച),"White goosefoot, Lamp’s queeterts (Fresh)",Chenopodium  album,,3
19.,ചെറൂള സമൂലം  (പച്ച),(Fresh),Aerva  lanata,,2200
20.,ഞൊട്ടാഞൊടിയന്‍ സമൂലം  (പച്ച),Country  gooseberry  (Fresh),Physalis  minima,,2100
21.,തഴുതാമ സമൂലം  (പച്ച),"Hogweed, Pig weed (Fresh)",Boerrhavia  diffusa,,1900
22.,താര്‍താവല്‍ സമൂലം  (ഉണക്ക),(Dried),Spermacoce  hispida,,100
23.,താര്‍താവല്‍ സമൂലം  (പച്ച),(Fresh),Spermacoce  hispida,,15000
24.,നിലമ്പരണ്ട സമൂലം   (ഉണക്ക),(Dried),Desmodium  triflorum,,500
25.,നിലമ്പരണ്ട സമൂലം (പച്ച),(Fresh),Desmodium  triflorum,,10
26.,നീല ഉമ്മത്ത് സമൂലം (പച്ച),Thorn apple (Fresh),Datura  stramonium,,350
27.,പര്‍പ്പടകപ്പുല്ല് സമൂലം (ഉണക്ക),(Dried),Hedyotis  corymbosa,,3500
28.,പ്രസാരണി സമൂലം (ഉണക്ക),(Dried),Merremia tridentata,,500
29.,പ്രസാരണി സമൂലം (പച്ച),(Fresh),Merremia tridentata,,4000
30.,പുലിച്ചുവടി സമൂലം (ഉണക്ക),Cupids  flower  (Dried),Ipomoea pestigrids,,150
31.,പുളിയാറല്‍ സമൂലം (പച്ച),Indian sorrel (Fresh),Oxalis  corniculata,,15
32.,മുക്കുറ്റി സമൂലം   (ഉണക്ക),(Dried),Biophytum  sensitivum,,125
33.,മുക്കുറ്റി സമൂലം  (പച്ച),(Fresh),Biophytum  sensitivum,,4000
34.,മുത്തിള്‍/കടുങ്ങന്‍ സമൂലം (ഉണക്ക),(Dried),",,                 ,,",,3
35.,മുത്തിള്‍/കടുങ്ങന്‍ സമൂലം (പച്ച),(Fresh),Hydrocotyle   asiatica,,20
36.,മുശുമുശുക്ക് സമൂലം (മുക്കാപ്പീരം)(പച്ച),(Fresh),Mukkia  maderaspatana,,300
37.,ശംഖുപുഷ്പം സമൂലം (പച്ച),Clitoria  (Fresh),Clitoria ternatea,,50
,ROOTS (വേരുകൾ ),,,,
38.,അക്കിക്കറുക,Pelletary  Roots,Anacyclus  pyrethrum,,15
39.,"അങ്കോലത്തിന്‍ വേര് (ഉണക്ക)  Size 18""length & 11"" Diameter ",Sage-Leaved  Aiungium  (dried),Alangium salvifolium,,15
40.,അടയ്ക്കാമണിയന്‍ വേര് (ഉണക്ക) ,Junippe Berry (Dried),Sphaeranthus  indicus,,900
41.,അമല്‍പൊരി വേര് (ഉണക്ക),Red Serpentina [dried],Rauwolfia serpentina,,300
42.,അമവേര്  (ഉണക്ക) ,Pinreed Grass (Dried),Saccharem Bengalens,5”,75
43.,അമുക്കുരം ,Winter Cherry,Withania  somnifera,,"38,000"
44.,ആട്ടുകൊട്ടപ്പാലവേര് (ഉണക്ക)(ആടുതൊടാപാല വേര്),"Worm  killer,  Bractealied Birthwort  (Dried)",Aristolochia bracteolata,,1000
45.,ആടുനാറിവേളവേര് (ഉണക്ക),"Wild mustard, Dog mustard (dried)",Cleome gynandra,,300
46.,ആര്യവേപ്പിന്‍വേര് (ഉണക്ക),The Creat   (dried),Azadirachta  Indica,,3
47.,ആറ്റുദര്‍ഭ വേര് (ഉണക്ക),Dhub  Grass  (Dried),Typha elephantima,,50
48.,ആറ്റുവഞ്ചി വേര് (ഉണക്ക) ,(Dried),"Homonoia riparia, Lour",,2
49.,ആവണക്കിന്‍ വേര് (ഉണക്ക),Castor Oil tree (dried),"Ricinus Communis, Linn",5”,"30,000"
50.,ഇരട്ടിമധുരം,Liquorice Root,Glycyrrhiza glabra,,"10,000"
51.,ഉങ്ങിന്‍ വേര്  (ഉണക്ക)18” length & 11” diameter,"Indian reech, pongamal tree (dried)",Pongamia pinnata,,600
52.,എരുക്കിന്‍ വേര് (ഉണക്ക),Calotropis  (dried),Calotropis Procera,5”,9500
53.,എശങ്കിന്‍ വേര് (ഉണക്ക),Asank moola (Dried),"Azima tetracantha, Linn",5”,100
54.,"ഏകനായകവേര്  ഉണക്ക (Size 5"" )",Salacia oblonga,Salacia oblonga,,"16,000"
55.,"ഓരിലവേര് ഉണക്ക  (Size 22"" Length)",Trick Tree dried,Uraria Picta,,"14,000"
56.,കടമ്പിന്‍ വേര് (ഉണക്ക),Careys tree (dried),Neolamarckia  cadamba,,100
57.,കടുകുരോഹിണി   ,Black Hellebore,Picrorrhiza kurroa,,"2,700"
58.,കന്നികൊട്ടകത്തിന്‍ വേര്  (ഉണക്ക),Kontamool (dried),,,100
59.,കമുകിന്‍ വേര്  (ഉണക്ക),Areca  Palm  (Dried),Areca  Catechu,,20
60.,കര്‍പ്പൂരതുളസി വേര് (പച്ച),(fresh),Ocimum  kilimandscharicum,,10
61.,കരവീരത്തിന്‍ വേര്  (ഉണക്ക),(dried),,,20
62.,കരിംകുറിഞ്ഞി വേര്  (ഉണക്ക),Common Yellow Nail Dye Plant  (dried),Strobilanthes ciliatus,,13000
63.,കരിനൊച്ചിവേര്  (ഉണക്ക) 18” Length   & 11 “ Diameter,Five Leaved Chaste Tree (dried),Vitex negundo,,1600
64.,കരിമ്പിന്‍ വേര്  (ഉണക്ക),Sugarcane  (dried),Saccharum  officinarum,,900
65.,കരിമ്പിന്‍തടി (പച്ച),Sugarcane,Saccharum  officinarum,,700
66.,കല്ലൂര്‍വഞ്ചി വേര്  (ഉണക്ക),Country Borage (Dried),Rotula  aquatica,,500
67.,കള്ളി വേര്  (ഉണക്ക) 18” length & 11” diameter,Thorny Milk Hedge Plant (dried),Euphorbia ligularia,,100
68.,കഴഞ്ചി വേര് (ഉണക്ക)upto 22” length,"Fever nut, bonduc nut (dried)",Caesalpina bonduc,,200
69.,കാക്കതൊണ്ടിവേര് (ഉണക്ക),(Dried),Trichosanthes  tricuspidata,5”,50
70.,കാട്ടത്തി വേര് ( ഉണക്ക),(Dried),Ficus  hispida,,2
71.,കാട്ടപ്പവേര് (പച്ച),(fresh),,,10
72.,കാട്ടപ്പവേര്(ഉണക്ക),(dried),,,5
73.,കാട്ടുതിപ്പലി വേര് (ഉണക്ക),Pippalmoolam (dried),Piper longum,,3500
74.,"കാട്ടുതുളസി വേര് (ഉണക്ക)up to 22"" length  ",(Dried),Ocimum  malabaricum,,175
75.,കാട്ടുപയറിന്‍ വേര്  (ഉണക്ക),Pillipesara (dried),Vigna trilobata,,800
76.,കാട്ടുമുളകിന്‍ വേര് (ഉണക്ക),Piper Chaba (dried),Piper chaba,,4300
77.,കാട്ടുഴുന്നിന്‍ വേര്  (ഉണക്ക),Vigna radiata (dried),"Vigna radiata var, sublobata",,750
78.,കാട്ടുവെള്ളരി,Colocynth,Citrullus  colocynthis,,1500
79.,കാര്‍തൊട്ടി വേര് (ഉണക്ക),Ceylon Caper (dried),Hugonia mystax,5”,1200
80.,കുമിഴിന്‍ വേര് (ഉണക്ക)18” length & 11” diameter,White Teak (dried),Gmelina  arborea,,15000
81.,കുരുക്കുത്തിമുല്ല വേര് (പച്ച),(fresh),Jasminum  ssp,,10
82.,"കുറുന്തോട്ടിവേര് ഉണക്ക ( Size 22"" length)",Country Mallon (dried) ,"Sida rhombifolia ssp retusa, SP cordifolia",,"68,000"
83.,കുഴൽകൊന്ന,Turpeth Root,loperculina turpethum,,"19,000"
84.,കുശവേര് (ഉണക്ക),Thatch Grass   (Dried),Saccharum  spontaneum,,75
85.,"കൂവളവേര് ഉണക്ക(Size 18"" Length & 11"" Diameter)","Holy fruit tree, Bael tree(dried)",Aegle marmelos,,"44,000"
86.,കൃഷ്ണതുളസി വേര് (പച്ച),Sacred  basil  (fresh),Ocimum tenuiflorum,,10
87.,കൊടുതൂവ വേര്  (ഉണക്ക) ,Climbing Nettle   (dried),Tragia involucrata,,13500
88.,കോല്‍മാഞ്ചി,Musk Root,Nardostachys grandiflora,,2300
89.,കോഴിക്കാലിന്‍ വേര് (പച്ച),(fresh),Adiantum   lanatum,,2
90.,ഗരുഡക്കൊടി വേര് (കരളകം)(ഉണക്ക),Indian birthwort (Dried),Aristolochia  indica,,25
91.,ചിറ്റീന്തല്‍ വേര് (ഉണക്ക),Small wild date palm (dried),Phoenix  pusilla,,750
92.,ചുവന്നരത്ത ,Lesser Galangal,Alpinia galanga,,"20,000"
93.,"ചെറിയ ആടലോടക വേര്  ഉണക്ക (Size 5"")",Vasak (dried),Adhatoda  beddomei/Adhatoda  vassica,,"24,000"
94.,ചെറുതേക്കിന്‍ വേര് (ഉണക്ക),Beetle Killer Root (dried),Clerodendrum serratum,5”,2500
95.,ചെറുവഴുതിന വേര്  (ഉണക്ക),India night shade (dried),solanum melongena,22”,21000
96.,"ചെറൂള വേര്   ഉണക്ക  (Size 22"" Length)",Mountain knot grass(dried),Aerva lanata,,"18,000"
97.,ജഡാമാഞ്ചി,,Nardostachys   Jatamansi,,300
98.,തകരം (പഞ്ചാബ്),Foetid Cassia,Valeriana jatamansi/Valeriana wallichii,,"2,500"
99.,തഴുതാമവേര്  ഉണക്ക ,Spreading Hogweed (dried),Boerrhavia diffusa,,"23,000"
100.,താന്നി വേര് (പച്ച),Belliric myrobalan (fresh),Terminalia bellirica,,300
101.,തുളസി വേര് (ഉണക്ക),Holy Basil (Dried),Ocimum sanctum,5”,100
102.,തൂതുവിള വേര്  (ഉണക്ക),(dried),,,0.500
103.,തെങ്ങിന്‍ വേര്  (ഉണക്ക),Coconut  Palm  (Dried),Cocos  nucifera,,20
104.,"തെച്ചി വേര് (ഉണക്ക) 22"" length",Wild Date Fruit (dried),Ixora  coccinea,,6000
105.,"തേക്കട വേര് (ഉണക്ക) 22""length",Indian turnsole (dried),Heliotropium  indicum,,50
106.,ദര്‍ഭ വേര് (ഉണക്ക),Sacritical Grass Root (dried),Desmostachya  bipinnata,,300
107.,നാഗദന്തി വേര് (ഉണക്ക),Wild   croton   (dried),Baliospermum  montanum,,500
108.,നായ്ക്കുരണ വേര് (ഉണക്ക),Cowhage Planet (dried),Mucuna  pruriens,,500
109.,"നീര്‍മാതളത്തിന്‍ വേര് (ഉണക്ക) 18"" length & 11""diameter",Three leaved caper (dried),Crataeva  nurvala,,1800
110.,നീലയമരി വേര് (ഉണക്ക),True Indigo (dried),Indigofera tinctoria,5”,50
111.,നെന്മേനി വാക വേര്  (ഉണക്ക)18” length & 4” diameter,(dried),Albizzia lebbeck,,5
112.,പടര്‍ച്ചുണ്ട വേര് (ഉണക്ക),(dried),Cassia  mimosodies,,750
113.,പലകപയ്യാനി വേര്  (ഉണക്ക) 18” length & 11” diameter,Indian trumpet flowerbark (dried),Oroxylum  indicum,,14000
114.,പാതിരി വേര് (ഉണക്ക)18” length & 11” diameter,(dried),Stereospermum  suaveolens,,14000
115.,പിച്ചകത്തിന്‍ വേര്  (ഉണക്ക),(dried),Jasminum officinale,,3
116.,"പുത്തരിചുണ്ടവേര് ഉണക്ക (Size 5"")",The creat(dried),Solanum anguivi,,"10,500"
117.,പുഷ്കരമൂലം ,Pushkaramool,Inula racemosa,,"4,700"
118.,പൂക്കൈതവേഡ് (ഉണക്ക),Fragrant  Screw  Hemp(dried),Pandanus Tectorius,5”,175
119.,പൂക്കൈതവേഡ് (പച്ച),Fragrant  Screw  Hemp(fresh),Pandanus Tectorius,5”,2000
120.,"പൂവത്ത് (മഞ്ചട്ടി , മഞ്ജിഷ്ട )",Madder Root,Rubia cordifolia,,"5,700"
121.,പെരുംകുരുബ വേര്  (ഉണക്ക),Bow-Screw  Hemp  (dried),Chonemorpha  fragrans,,2000
122.,പൊന്നാവീരത്തിന്‍ വേര്  (ഉണക്ക),Negrao coftee Plant (Fresh),Cassia  occidentalis,,15
123.,പേരാല്‍ വേഡ് (ഉണക്ക),Banyan Tree (dried),Ficus benghalensis,5”,10
124.,പേരാല്‍ വേഡ് (പച്ച)),Banyan Tree (Fresh),Ficus  benghalensis,,20
125.,മണിത്തക്കാളി വേര് (പച്ച),Black night -shade (fresh),Solanum  nigrum,,10
126.,മുഞ്ഞ വേര് (ഉണക്ക)18” length & 11” diameter,Wind Killer   (dried),Premna  serratifolia,,16000
127.,"മൂവിലവേര് ഉണക്ക (Size 22"" Length)",Viseid pseudardhria dried,Desmodium  gangelium ,,"14,000"
128.,രാമച്ചം  ഉണക്ക ,Cuscus Grass (dried),Vetiveria zizanioides,,"11,000"
129.,വയമ്പ്  ,Sweet Flag Root,Acorus calamus,,"19,500"
130.,വയല്‍ ചുള്ളി വേര്  (ഉണക്ക),longleaved Barleria (dried),Hygrophila  auriculata,22”,5000
131.,വലിയ കടലാടി വേര് (ഉണക്ക),Rough Chapp Tree (dried),"Achyranthes aspera, Linn",,400
132.,ശംഖുപുഷ്പത്തിന്‍ വേര്  (ഉണക്ക),Clitoria (Dried),Clitoria ternatea,,1300
133.,ശീമ ഇരുവേലി  (ഉണക്ക),Fragrant Silky Mallow (Dried),Coleus  Zeylanicus,,4200
134.,ശീമക്കൊട്ടം,Costus Root,Saussurea lappa,,"7,000"
,Rhizomes (കിഴങ്ങുകൾ ),,,,
135.,അടപതിയൻ കിഴങ്ങു  ഉണക്ക ,Holostemma creeper(dried),Holostemma ada-kodien,,"1,400"
136.,അതിവിടയം ,Indian Atis,Aconitum heterophyllum,,600
137.,ആമ്പല്‍ക്കിഴങ്ങ് (ഉണക്ക),Water Lily Rhizome (dried),Nymphaea alba,,75
138.,ഇഞ്ചി,Ginger,Zingiber officinale,,2000
139.,ഓരിലത്താമരക്കിഴങ്ങ് (പച്ച),(fresh),Nervilia aragoana,,5
140.,കച്ചൂരിക്കിഴങ്  ഉണക്ക   ,Long Zedor(dried),Hedychium spicatum,,"8,700"
141.,കദളി വാഴക്കിഴങ്ങ് (പച്ച) cut in to pieces (4” x4”   square ),Plantain  (fresh),Musa paradisica,,700
142.,കരിംകൂവളക്കിഴങ്ങ്  (ഉണക്ക),(dried),Monochoria vaginalis,,75
143.,കസ്തൂരി മഞ്ഞള്‍,Aromatic Turmeric  (Dried),Curcuma aromatica,,200
144.,കാട്ടുചേന,Elephant Foot yarm (fresh),Amorphophallus canpaulatus,,1200
145.,കൊടുവേലി കിഴങ്ങ് (ഉണക്ക),Lead Wort (dried),plumbago zeylanica,,3300
146.,കോവല്‍ക്കിഴങ്ങ് (ഉണക്ക),Ivy gourd,Coccinia Indica,,5
147.,ചീനപ്പാവ്,China Root,Smilax china,,50
148.,ചുക്ക് ,Dried Ginger,Zingiber officinalie,,"60,000"
149.,ചുരുട്ടുരോഹിണി (ഉണക്ക),(dried),Soymida febrifuga,,125
150.,ചുവന്നുള്ളി ,Onion,Allium cepa,,"15,500"
151.,ചെങ്ങഴിനീര്‍ക്കിഴങ്ങ്  (ഉണക്ക),Indian crocus (dried),Kaempferia rotunda,,1000
152.,ഞെരിഞ്ഞാംപുളിക്കിഴങ്ങ് (ഉണക്ക),(dried),Solena amplexicaulis,,700
153.,ഞെരിഞ്ഞാംപുളിക്കിഴങ്ങ് (പച്ച)upto 1.5 mtr length,(fresh),Solena amplexicaulis,,1200
154.,താമരക്കിഴങ്ങ്  (ഉണക്ക),Lotus (dried),Nelumbo nucifera,,75
155.,നറുചണ്ണക്കിഴങ്ങ് (ഉണക്ക),(dried),Costus  speciosus,,50
156.,നറുനീണ്ടി കിഴങ് ഉണക്ക   ,Indian Sarasaparilla(dried),Hemidesmus indicus,,"5,000"
157.,നിലമ്പനകിഴങ് ഉണക്ക ,Black Musali(dried),Curculigo orchioides,,"8,500"
158.,നൈതല്‍ക്കിഴങ്ങ് (ഉണക്ക),Indian blue water Fily (dried),Nymphaea stellata,,50
159.,പച്ചമഞ്ഞൾ,Turmeric,Curcuma longa,,"61,000"
160.,പാടക്കിഴങ് ഉണക്ക ,Flase Pareirabrave (dried),Cyclea peltata,,"4,200"
161.,പാര്‍വള്ളിക്കിഴങ്ങ് (ഉണക്ക),Black Sarasaparilla dried,Ichnocarpus  frutiscenes,,200
162.,പാല്‍മുതുക്ക് (പച്ച),French Honey Suckle Tuber (fresh),Ipomoea digitata,,700
163.,പാല്‍മുതുക്ക്(ഉണക്ക),French Honey Suckle Tuber (dried),Ipomoea digitata,,700
164.,പീതരോഹിണി,,Picrorrhiza  Ssp.,,10
165.,മുത്തങ്ങക്കിഴങ് ഉണക്ക,Nut grass (dried),Cuperus rotundus,,"27,000"
166.,മുലേരിക്കിഴങ്ങ് (പച്ച),Raddish   (Fresh),Raphanus sativus,,900
167.,വത്സനാഭി,Indian Aconite,Aconitum  ferox,,400
168.,വരട്ടുമഞ്ഞൾ ,Turmeric,Curcuma longa,,"18,500"
169.,വെള്ളുള്ളി (ഉണക്ക),Garlic [dried],Allium  sativum,,800
170.,വെള്ളുള്ളി(പച്ച),Garlic  [Fresh],Allium  sativum,,11000
171.,ശതാവരികിഴങ് ഉണക്ക ,Wild aspara gus (dried),Asparagus racemosus,,"2,500"
172.,ശതാവരികിഴങ് പച്ച   (Bag  wt. 50 Kg),Wild aspara gus (fresh),Asparagus racemosus,,"80,000"
,TWINNERS (വള്ളികള്‍),,,,
173.,അമ്പഴത്തില,Wild mangom Hogplum (dried),Spondias  pinnata,,1300
174.,ആര്യവേപ്പില(പച്ച),"Indian lilac, Margora tree [fresh]",Azadirachta indica,,1600
175.,എരുക്കില (പച്ച),Gigantic Swallow wort Mudar [fresh],Calotropis Procera,,75
176.,കഞ്ഞുണ്ണി (ഉണക്ക),Traling Eclipta [dried],Eclipta  prostrata,,175
177.,കഞ്ഞുണ്ണി (പച്ച),Traling Eclipta [fresh],Eclipta prostrata,,29000
178.,കണികൊന്നയില (പച്ച),"Purging fistula, Indian laburom",Cassia fistula,,25
179.,കരിനൊച്ചിയില (പച്ച),Five  leaved  Chast Tree  [fresh],Vitex  negundo,,6500
180.,കരിമുരുക്ക് (പച്ച),Indian coral tree [fresh],Erythrina  indica,,4000
181.,കറ്റുവാഴത്തണ്ട് (പച്ച),Aloes  (fresh),Aloe  barbadesis,,73000
182.,കറിവേപ്പില (പച്ച),Curry Leaf Tree [fresh],Murraya  koenigii,,6200
183.,കറിവേപ്പില(ഉണക്ക),Curry Leaf Tree [dried],Murraya  koenigii,,5
184.,കറുക (ഉണക്ക),Creeping Cynodon [dried],Cynodon  dactylon,,10
185.,കറുക (പച്ച),Creeping Cynodon [fresh],Cynodon  dactylon,,7400
186.,കള്ളിക്കഴുത്ത് (ഉണക്ക),Thorny Milk Hedge Plant [dried],Euphorbia trigona,,75
187.,കള്ളിയില,Common  mille  hedge  [fresh],Euphorbia derifolia,,20
188.,കാഞ്ഞിരത്തില (പച്ച),NUX - Vomica tree leaf,Strychnos nux - vomica,,5
189.,കാട്ടുപടവലത്തില (പച്ച),Wild Snake gound [fresh],Trichosanthes cucumerina,,150
190.,കുടപ്പുളിയില(പച്ച),Indian gamboge [fresh],Garcinia gummi-gutta,,600
191.,കൂവളത്തില (പച്ച),Bael Tree   [fresh],Aegle marmelos,,5600
192.,കൃഷ്ണതുളസിയില (പച്ച),Sacred  Basil  [fresh],Ocimum sanctum,,6000
193.,കൊഴുപ്പയില (പച്ച),Prickly leaved elephants foot [fresh],Elephantopus scaber,,150
194.,കോവല്‍വള്ളി (പച്ച),Ivy gourd (fresh),Coccinia grandis,,300
195.,ചക്കരകൊല്ലിയില (ഉണക്ക),Periploca of woods,Gymnema  sylvestre,,200
196.,ചങ്ങലമ്പരണ്ട (ഉണക്ക),(dried),Cissus quandrangularis,,150
197.,ചിറ്റമൃത് (പച്ച) 12” to 18” length,Heart Leaved Moon Seed (fresh),Tinospora cordifolia,,6000
198.,ചിറ്റമൃത് ഉണക്ക ,Heart Leaved Moon Seed (dried),Tinospora cordifolia,,"20,000"
199.,ചുരയില(പച്ച),[fresh],Curcuma lagenaria,,2200
200.,ചെമ്പരത്തിയില (പച്ച),Shoe Flower [fresh],Hibiscus rosa-sinensis,,4300
201.,ചെറിയ ആടലോടകത്തില (പച്ച),[fresh],Adhatoda beddomei,,30
202.,ചെറുപ്പിച്ചകത്തില (പച്ച) 1m-1.5m length,Jasmine  [fresh],Jasminum grandiflorum,,5000
203.,ചോനകപ്പുല്ല് (ഉണക്ക),West Indian lemen grass [dried],Cymbopogan citratus,,500
204.,ഞാറകുരുന്ന് (പച്ച),Jamoon  [fresh],Syzygium cumini,,15
205.,തമാരവളയം (ഉണക്ക),Stalk of the Lotus (dried),Nelumbo nucifera,,725
206.,താന്നിയില (പച്ച),Belleric Myrobalan [fresh],Terminalia bellirica,,600
207.,തിരുതാളി (പച്ച),Mandrake (fresh),Ipomoea sepiaria,,50
208.,തേക്കിന്‍ കുരുന്ന് (കൂമ്പ്) (പച്ച),Teak Tree [fresh],Tectona grandis,,1100
209.,ദന്തപ്പാലയില,Pala indigo plant,Wrightia tinctoria,,3800
210.,ദര്‍ഭപ്പുല്ല് (ഉണക്ക),Sacrificial  grass  [dried],Desmostachya bipinnata,,200
211.,നാന്‍മുഖപ്പുല്ല് (ഉണക്ക),Peacock’s tail [dried],Actiniopteris dichotoma,,200
212.,നീല ഉമ്മത്തിന്‍ ഇല (പച്ച),Thorn apple [fresh],"Datura stramonium, Linn",,2200
213.,പനിക്കൂര്‍ക്കയില (പച്ച),[fresh],Coleus aromatics,,700
214.,പരുവക്കൊടി (പച്ച),(fresh),Pothos scandens,,1500
215.,പർപ്പടക പുല്ല് പച്ച ,Old world  diamon flower (fresh),Hedyotis corymbosa,,"54,000"
216.,പാച്ചോറ്റിയില (പച്ച),Lodh Tree [fresh],Symplocos  cochinchinensis,,100
217.,പുല്ലാനിയില (പച്ച),[fresh],Calycopteris floribunda,,2200
218.,പൂതണക്കപ്പുല്ല് (സംഭാര പുല്ല്),Rusha  grass,Cymbopogon martinii,,10
219.,ബ്രഹ്മി (ഉണക്ക),Indian penny Wort (dried),Bacopa monnieri,,200
220.,ബ്രഹ്മി (പച്ച),Indian penny Wort (fresh),Bacopa monnieri,,3200
221.,മാതളനാരകത്തില (പച്ച),Pomegranate  [fresh],Punica granatum,,600
222.,മാവില (ഉണക്ക),Mango tree (dried),Mangifera indica,,20
223.,മുരിങ്ങയില (പച്ച),Drum Stick Tree [fresh],Moringa oleifera,,15000
224.,വെറ്റിലക്കൊടി (കൊടിഞ്ഞാലി) (പച്ച),Betel Leaf (fresh),Pipper betel,,4300
225.,സോമവല്ലി (സോമലത) (പച്ച),Moon creeper moon plant (fresh),Sarcostemma acidum,,25
,FLOWERS (പുഷ്പങ്ങള്‍),,,,
226.,അത്തിമൊട്ട്  (ഉണക്ക),Country Fig Tree [dried],Ficus racemosa,,2
227.,അരയാല്‍മൊട്ട്  (ഉണക്ക),Sacred Fig [dried],Ficus religiosa,,2
228.,ഇത്തിമൊട്ട്  (ഉണക്ക),Ficus Lacor [dried],Ficus microcarpa,,2
229.,ഇരുപ്പപ്പൂവ് (ഉണക്ക),Mahua Tree [dried],Madhuca longifolia,,1800
230.,ഇലഞ്ഞിപ്പൂവ് (ഉണക്ക),Indian Medler [dried],Mimusops elengi,,5
231.,കരയാമ്പൂവ്,Cloves,Syzygium aromaticum,,"3,000"
232.,കുങ്കുമപൂവ് (see specification),Saffron,Crocus sativus,,15
233.,ചെമ്പകമൊട്ട് (ഉണക്ക),"Champak,  golden  champa  [dried]",Michelia champaca,,3
234.,ചെമ്പരത്തിമൊട്ട് (പച്ച),Hibiscus  rosasinensis  [fresh],Hibiscus rosa-sinensis,,20
235.,ജാതിപത്രിക,Mace,Myristica  fragrans,,250
236.,ഞാഴല്‍ പൂവ്,Black  Plum,Callicarpa  macrophylla,,1500
237.,തക്കോലപൊട്ടില്‍,Star Anise Fruit,Illicium  verum,,700
238.,താതിരിപൂവ് ,Fulses Flower (Dried),Woodfordia fruiticosa,,"15,000"
239.,താമരപ്പൂവ് (പച്ച),Lotus flower [fresh],Nelumbo nucifera,,15
240.,താമരയല്ലി ,Lotus Stamens ,Nelumbo nucifera,,800
241.,തുമ്പപ്പൂവ് (പച്ച),Phlomis  [fresh],Leucas aspera,,5
242.,തുളസിക്കതിര്‍ (ഉണക്ക),Holy Basil [dried],Ocimum sanctum,,700
243.,തെങ്ങിന്‍ പൂക്കുല (പച്ച-മൂപ്പ് കുറഞ്ഞത്),[fresh],Cocos nucifera,,1700
244.,തെച്ചിപ്പൂവ് (പച്ച),Wild Date Fruit [fresh],Ixora coccinea,,4500
245.,പനംകുല (പച്ച),"Fish tail palm, Elephant’s palm [fresh]",Carvota urens,,600
246.,പനവാഴയ്ക്ക (ഉണക്ക),Palmira Palm [dried],Borassue formis,,75
247.,പശുപാശി,Pasupasi,Myristica malabarica,,5
248.,പിച്ചകമൊട്ട് (പച്ച),Jasmine  [fresh],Jasminum grandiflorum,,50
249.,പുന്നപ്പൂവ്  (ഉണക്ക),Alexandrian laurel [dried],Calophyllum inophyllum,,150
250.,പേരാല്‍ മൊട്ട്  (ഉണക്ക),Banyan Tree [dried],Ficus benghalensis,,2
251.,ശീമ നാഗ പൂവ്,Lotus stamens,Mesua ferea,,2800
,FRUITS(ഫലങ്ങള്‍),,,,
252.,അക്ലാരി തേങ്ങ,Double  Coconut,Lodoicea  maldivica,,2
253.,അഗശിക്കുരു,Linseed/Flax  seed,Linum usitatissimum,,900
254.,അത്തിത്തിപ്പലി,Elephant Piper,Rhaphidophora pertusa,,1000
255.,അയമോദകം ,Bishopweed,Apium Leptophyllum,,"12,000"
256.,അരേണുകം,,Piper  aurantiacum,,350
257.,അവില്‍,Flattened  Rice,,,100
258.,ആര്യവേപ്പിന്‍ കായ,Neem  Seed,Azadirachta Indica,,20
259.,ആശാളി,Creess  Seeds,Lepidium sativum,,400
260.,ഇളനീര്‍(Nos) (Min.1.750Kg),Tender  Coconut  (Nos.),Cocosnucifera,,8600
261.,ഈന്തപ്പഴം,Edible Date,Phoenix dactylifera,,5
262.,ഉങ്ങിന്‍ കുരു,Indian Beach,Pongamia pinnata,,75
263.,ഉങ്ങിന്‍ കുരു പരിപ്പ്,Indian Beach,Pongamia pinnata dried coty ledon,,500
264.,ഉണക്കലരി,Kanjikam,Oriza sativa,,325
265.,ഉലുവ,Fenu Greek Seed,Trigonella  foenum-graeceum,,4500
266.,ഉഴുന്ന്,Black  gram,Vigna  mungo,,5500
267.,എള്ള് (നല്ലയിനം കറുത്തത്),Seasamum,Seasamum indicum,,75
268.,ഏലക്കായ,Cardamom,Elettaria cardamomum,,"7,000"
269.,ഏലാവാലുകം,Bird  cherry,Prunus avium,,600
270.,കടുക്ക ,Chebulic Myrobalan,Terminalia chebula,,"22,000"
271.,കടുക്കത്തോട് ,Chebulic Myrobalan,Terminalia chebula  (Fruit rind),,"84,000"
272.,കദളിപ്പഴം,Plantain,Musa paradisica,,100
273.,കര്‍ക്കിടക ശൃംഗി,Galls,Pistaacia  Chinensis,,500
274.,കരിംജീരകം ,Black Cumine,Nigella sativa,,"5,500"
275.,കറുത്തകടുക്,Mustard Black,Brassica juncea,,"10,000"
276.,കറുത്തമുന്തിരിപഴം ,Black Grapes (With seed & sweet taste),Vitis vinifera,,"29,000"
277.,കഴഞ്ചിക്കുരു പരിപ്പ്,Bondue Nuts,Caesalpinia bonduc,,10
278.,കാഞ്ഞിരക്കുരു,Nux Vomica,Strychnos nux Vomica,,5
279.,കാട്ടുജീരകം,Purple fleebane,Centratherum anthelminticum,,"3,300"
280.,കാര്‍കോകിലരി,Psoralea  Seeds,Psoralea  corylifolia,,1500
281.,കുടകപാലയരി,Kurchi,Holarrhena antidysenterica,,"2,500"
282.,കുന്നിക്കുരു,Red Beed Tree,Abrus precatorious,,125
283.,കുമ്പളങ്ങ (ഒരു കൊല്ലം പഴകിയത്),Ash Guard [one year old],Benincasa cerifera,,4000
284.,കുമിഴിന്‍ പഴം,White Teak,Gmelina arborea,,400
285.,കുരുമുളക് ,Black Pepper,Piper nigrum,,"15,000"
286.,കുറാശ്ശാണി,Henbane,Hyoscyamus  niger,,10
287.,കൂവളക്കായ ചോറ് (പച്ച ഇളയത്),Bael Tree [fresh],Aegle marmelos,,5
288.,കൊത്തമ്പാലയരി (മല്ലി),Coriander Seeds,Coriandrum sativum,,"12,000"
289.,ചണം പയര്‍ (മസൂര്‍ പരിപ്പ്),Masoor dal,Lensculinaris,,125
290.,ചീനത്തിപ്പല്ലി , Long Pepper,Piper longum,,"27,500"
291.,ചെറുത്തിപ്പല്ലി,Long pepper,Piper longum,,"3,600"
292.,ചെറുനാരങ്ങ (Nos) Min.75 gm,Lemon (nos) Min. 75 gm,Citrus limon,,"2,40,000"
293.,ചെറുനാരങ്ങ (ഉണക്ക)(കി.ഗ്രാം),Lemon [dried] Kg.,Citrus limon,,25
294.,ചെറുപയര്‍,Greem  Gram,Phaseolus   radiatus,,500
295.,ചെറുപുന്നയരി,Balloon  Wine,Celastrus paniculatus,,400
296.,ചേര്‍ക്കുരു,Marking Nut,Semicarpus anacardium,,30
297.,ജാതിയ്ക്ക,Nutmeg,Myristica  fragrans,,900
298.,ജീരകം ,Cummin seeds,Cuminum cyminum,,"18,000"
299.,ഞാവല്‍ക്കുരു പരിപ്പ്,Black  plum,Syzygium cumini,,750
300.,ഞെരിഞ്ഞിൽ ,Small Caltrops,Tribulus terrestris,,"24,000"
301.,താന്നിക്കുരു പരിപ്പ്,Belleric Myrobalan (Seed),Terminalia bellirica,,10
302.,താനിക്കത്തോട് (തൊണ്ട്),Bellerica Myrobalan,Terminalia bellirica              (Fruit rind),,"31,000"
303.,താമര കുരു പരിപ്പ്,Sacred lotus nut,Nelumbo nucifera,,5
304.,തിനയരി,Great Millet,Setaria italica,,100
305.,തുമ്പൂണലരി,,Zanthoxylum armatum,,100
306.,തുവരപരിപ്പ്,Pegion Pea,Cajanus  cajan,,2
307.,തേറ്റാമ്പരൽ ,Clearing Nut,Strychnos potatorum,,"6,200"
308.,നായ് കുരണ പരിപ്പ്,,Mucuna pruriens,,25
309.,നാളികേരം(പഴുത്തത്)  Wt500GM  (NOS),Coconut (Min.500g wt) Nos,Cocos nucifera,,"56,000"
310.,നീല ഉമ്മത്തിന്‍ കുരു,Thorn apple seed,Daturs metal seed,,60
311.,നെല്ല്,Paddy,Oryza sativa,,3
312.,നെല്ലിക്കാത്തോട് ,Emblic Myrobalan,Emblica Officinails,,"58,000"
313.,പച്ചനെല്ലിക്ക,Emblic Myrobalans(fresh), Emblica officinalis,,"41,000"
314.,പരുത്തിക്കുരു,Indian Cotton Seed,Gossypium  herbaceum,,3100
315.,പഴയ മുതിര,Horse grain,Dolichos   biflorus,,7300
316.,പഴയപുളി,Old Tamarind,Tamarindus indicus,,250
317.,പഴുക്കടക്ക (മൊരി കളഞ്ഞത്),Arecanut  Palm,Areca catechu,,500
318.,പുല്ലാനിക്കായ,,Calycoteris florbunda,,5
319.,പെരുംജീരകം,Fennel,Foeniculum vulgare,,300
320.,പൊന്നാന്തകരക്കുരു,Foetid  Cassia,Cassia tora,,3
321.,പേരേലം,Large  Cardamom,Amomum  subulatum,,175
322.,ബദാം പരിപ്പ്,Sweer Almonds,Prunus dulcis,,5
323.,ബ്ലാങ്കായപ്പരിപ്പ് (ചോറുണങ്ങിയത്),Wood Apple,Feronia elephantum,,3000
324.,മലങ്കാരപരിപ്പ്,Emetic  Nut,Randia  dumetorum,,250
325.,മലര്‍,Parched  Paddy,,,300
326.,മാങ്ങയണ്ടിപരിപ്പ് (ഉണക്ക),Mango Seed Kernal [dried],Mangifera indica,,1000
327.,മാതള നാരങ്ങ (ഉണക്ക),Pomegranate  [dried],Punica granatum,,125
328.,മാതള നാരങ്ങ (പഴുത്തത്),Pomegranate,Punica granatum,,3300
329.,മാതളനാരങ്ങത്തോട്,Pomegranate,Punica  granatum,,1200
330.,മായാക്ക്,Oak Galls,Quercus infectoria,,10
331.,മുരിങ്ങക്കുരു (ഉണക്ക),Drum Stick Tree [dried],Moringa olefera,,125
332.,യവം ,Barley ,Hordeum vulgare,,"21,000"
333.,രുദ്രാക്ഷം,Rosery Nut,Elaeocarpus sphaericus,,75
334.,ലന്തക്കുരു,Jujube Fruit,Zizyphus  mauritiana,,2800
335.,വട്ടത്തകര കുരു,"Sickle senna, wild senna",Cassiafora,,15
336.,വട്ടപ്പൂന്താളിയരി,,Acalypha hispida,,15
337.,വന്‍കൊട്ടക്കിഴങ്ങ്/കായ,Water  chestnut,Trapanatans,,5
338.,വയല്‍ ചുള്ളി വിത്ത്,,Hygrophila auriculata,,15
339.,വരകിനരി,Common  Millet,Paspalum scrobiculatum,,100
340.,വാൽമുളക്‌,cubeb Pebber,Piper cubeba,,500
341.,വിഴാലരി ,Babrieng,Embelia ribes,,"4,600"
342.,വെള്ള കശകശ,Opium  poppy  seeds,Papaver somniferum,,1
343.,വെളുത്ത കടുക്,White  Mustard,Brassica  alba,,325
344.,ശതകുപ്പ,Dilseed,Anethum  Graveolens,,5200
,BARK(പട്ടകള്‍/തൊലികള്‍),,,,
345.,അത്തിത്തൊലി (ഉണക്ക),Country Fig Tree [dried],Ficus glomerata,,600
346.,അമ്പഴത്തൊലി (ഉണക്ക),Wild Mango [dried],Spondias pinnata,,250
347.,അരയാല്‍ത്തൊലി (ഉണക്ക),Sacred Fig [dried],Ficus religiosa,5”,600
348.,അശോകത്തൊലി (ഉണക്ക),Ashok Tree [dried],Saraca asoka,,4300
349.,ആര്യവേപ്പിന്‍ തൊലി (ഉണക്ക)5” Width & 36” length,Indian liac Margosa tree,Azadirachta indica,,30000
350.,ആവല്‍ പട്ട (ഉണക്ക)5” Width & 36” length,"Indianelm, Kanju [dried]",Holoptelea integrifolia,,12000
351.,ഇത്തിത്തൊലി (ഉണക്ക),Ficus Laco [dried],Ficus microcarpa,,700
352.,"ഉങ്ങിൻ തൊലി പച്ച (Size 5"" )",Indian Beach (fresh),Pongamia glabra,,"15,000"
353.,ഉങ്ങിന്‍ത്തൊലി (ഉണക്ക),Indian Beach [dried],Pongamia pinnata,,1500
354.,എഴിലംപാലത്തൊലി (ഉണക്ക),Dita Birk [dried],Alstonia scholaris,,175
355.,കണിക്കൊന്ന തൊലി ഉണക്ക,Purging fistula (dried),Cassia fistula,,5500
356.,കമ്പിപ്പാലത്തൊലി (ഉണക്ക),Kamela  Rottlera[dried],Mallotus philippinensis,,25
357.,കരവീരത്തിന്‍ത്തൊലി (ഉണക്ക),Oleander [dried],Nerium oleander,,20
358.,കരിവേലപ്പട്ട (ഉണക്ക),"Black babool, Indian gum arabic tree [dried]",Acacia nilotica,5”,13000
359.,കുടകപ്പാലത്തൊലി (ഉണക്ക),Kurchi [dried],Holarrhena antidysenterica,,1700
360.,ചുവന്ന മന്ദാരത്തിന്‍ത്തൊലി (ഉണക്ക),Orkid Tree [dried],Bauhinia variegata,,75
361.,ഞാറത്തൊലി (ഉണക്ക)5” Width & 18” length,Jamoon [dried],,,1100
362.,ഞാവല്‍ത്തൊലി (ഉണക്ക)5” Width & 18” length,Black plum [dried],Syzygium cumini,,1000
363.,തകിട്ടുവെമ്പാട തൊലി,Alkanet,Ventilago maderaspatna,,400
364.,താന്നിത്തൊലി (പച്ച),Belliric myrobulan [fresh],Terminalia bellirica,,300
365.,തേക്കിന്‍ത്തൊലി (ഉണക്ക)5” Width & 18” length,Teak Tree [dried],Tectona grandis,,200
366.,നീര്‍മരുതിന്‍ത്തൊലി (ഉണക്ക),Terminalia arjuna [dried],Terminalia arjuna,,4800
367.,നീര്‍മാതളത്തൊലി (ഉണക്ക),Three leaved caper [dried],Crataeva nurvala,,100
368.,നെന്‍മേനിവാകത്തൊലി (ഉണക്ക)5” Width & 18” length,Sirisa Tree [dried],Albizia lebbeck,,200
369.,പറങ്കിപ്പട്ട,Parangi Bark,Anacardium occidentale,,2
370.,പ്ലാശിന്‍ തൊലി  (ഉണക്ക)1” width & 18” length,Bastard Teak [dried],Butea monosperma,,325
371.,പാച്ചോറ്റിതൊലി ഉണക്ക ,Lodh Tree (dried),Symplocos racemosa ,,"11,000"
372.,പുളിത്തൊലി  (ഉണക്ക),Tamarind [dried],Tamarindus indicus,5”,100
373.,പേരാലിന്‍ത്തൊലി  (ഉണക്ക)5” width & 18” length,Banyan Tree [dried],Ficus benghalensis,,700
374.,മരമഞ്ഞൾതൊലി ഉണക്ക ,Indian Barberry,Coscinium fenestratum,,"10,500"
375.,മലയകത്തിത്തൊലി  (ഉണക്ക),[dried],Bauhinia variegata,,5
376.,മാവിന്‍തൊലി (ഉണക്ക),Mangifera indica [dried],Mangifera indica,5”,3
377.,മുരിങ്ങപ്പട്ട  (ഉണക്ക),Drum Stick [dried],Moringa oleifera Lam,5”,2500
378.,മുരുക്കിന്‍പട്ട (ഉണക്ക),Indian Coral Tree [dried],Erythrina variegata,,50
379.,മുരുക്കിന്‍പട്ട (പച്ച),Indian Coral Tree [fresh],Erythrina variegata,,150
380.,സീമഎലവങ്ങതൊലി ഉണക്ക (see specification),Silk Cotton Tree,Cinnamomum Zeylanicum,,"4,600"
,Wood Matter (സാരങ്ങള്‍),,,,
381.,ആര്യവേപ്പിന്‍ കാതല്‍ (ഉണക്ക)18” length & 11” diameter,"Margosa Tree, Indian lilac [dried]",Azadirachta indica,,50
382.,ഇരവൂളിന്‍ കാതല്‍ 18” length & 11” diameter,,Xylia  xylocarpa,,100
383.,ഇരുപ്പ കാതല്‍,Mahua Tree,Madhuka  longifolia,,1500
384.,കരിങ്ങാലിക്കാതല്‍18” length & 11” diameter,Catechu Tree,Acacia catechu,,15500
385.,കാരകില്‍,Eagle  Wood,Aquilaria agallocha,5”,10000
386.,ചരളം 18” length & 11” diameter ,Longleaved Pine,Pinus  roxburghie,,1400
387.,ദേവതാരം ,Deodar,Cedrus deodara,,"39,000"
388.,പതിമുഖം കാതല്‍ (ഉണക്ക)18” length & 11” diameter,"Sappan wood, Bazil wood [dried]",Caesalpinia Sappan,,8800
389.,പീനാറി (ഉണക്ക)  18” length & 11” diameter ,Pinari [dried],Sterculia foetida,,500
390.,പൈന്‍വൃക്ഷ കാതല്‍ (ഉണക്ക),White Damat Tree [dried],Vateria indica,,50
391.,"രക്തചന്ദനം  (see specification) Upto 5"" Length",Red Sandal Wood,Pterocarpus santalinus,,"20,000"
392.,വേങ്ങാക്കാതല്‍ (ഉണക്ക)18” length & 11” diameter,Indian Kino Tree [dried],Pterocarpusmarsupium,,9500
,EXTRACTS (സത്വങ്ങള്‍),,,,
393.,കന്മദം (see specification),Asphaltum,Asphaltum,,"2,200"
394.,കാത്ത്,Kath,Acacia catechu (extract),,20
395.,കൂവ്വനൂറ് ഉണങ്ങിയത്,Arrow Root Powder,Arrow Root,,5000
396.,കൊക്കോപൊടി (ISI  BRAND),,Coco Powder,,10
397.,ചെഞ്ചല്യം ,Sal Tree Resin,Shorea robusta,,"11,000"
398.,മുളമുത്ത്,Bamboo Manna,Bambusa  arundiacum,,500
,Latex/Resins (നിര്യാസങ്ങള്‍),,,,
399.,ഇരുവിക്കറ,Hirvi,,,2
400.,ഇലവിന്‍ പശ,"Silk Cotton, Trees, Gum",Bombax malabaricum,,800
401.,കോലരക്ക്,Lacca,Coccus  lacca,,1700
402.,ഗുൽഗുലു(see specification),Guggul resin,Commiphora wightii,,"12,000"
403.,ചെന്നിനായകം,Ext. Aloe,Aloe vera,,1000
404.,തിരുവട്ട പ്പശ,,Pinus roxburghii,,400
405.,തേൻമെഴുക്ക്,Bee Wax,,,"5,800"
406.,തേന്‍മെഴുക്(വെള്ള),Bees  Wax  (White),,,1000
407.,നറുംപശ,Myrrha,Balsmodendron myrrha,,350
408.,നവച്ചാൽക്കായം(see specification),Asafoetida,Ferula asafoetida,,"4,000"
409.,മണികുന്തിരിക്കം(See specification),Oil  banam,Boswellia  Serratum,,1800
410.,ശോധിത ഗുൽഗുലു (ശുദ്ധ ഗുൽഗുലു) See specification,Sudh Guggul resin,Commiphora mukul,,"8,400"
,Mineral Matter  (ധാതുവര്‍ഗ്ഗങ്ങള്‍),,,,
411.,അഞ്ജനക്കല്ല്,Galena,,,700
412.,അന്നഭേദി,Green Viterol,,,700
413.,അയസ്ക്കാന്തം,Load Stone,,,10
414.,അരിതാലം,Yellow  orpiment,,,35
415.,ഇന്തുപ്പ്,Rock  Salt,,,4500
416.,ഉരുക്കുപൊടി,Iron Powder,,,2500
417.,കന്നാരം,Kannaram,,,150
418.,കറുത്തഭ്രം,Mica (black),,,5
419.,കല്ലുപ്പ്,Common  Salt,Sodium Chloride,,200
420.,കാരുപ്പ്,Black Salt,,,525
421.,കാവിമണ്ണ്,Red  Ochre,Red Ochre,,1800
422.,ഗൗരീപാഷാണം,Arsenic  Pentasulphide,,,5
423.,ചവര്‍ക്കാരം,Pottassium  Carbonate,,,500
424.,ചായില്യം (കുപ്പിചായില്യം),Cinnabar ,,,325
425.,ചെമ്പുപൊടി,Copper  Powder,,,0.100
426.,ജഹര്‍മോഹ്റാപിഷ്ടി/നാഗപാഷണം,Serpentine  stone,,,5
427.,തുരിശ്,Copper  Sulphate,Copper Sulphate,,175
428.,തുവര്‍ച്ചിലക്കാരം,,,,400
429.,നെല്ലിക്കാഗന്ധകം,Purified Sulphur,Sulphur,,75
430.,പച്ചക്കർപ്പൂരം,Camphor,Cinnamomum Camphora,,"4,800"
431.,പാല്‍തുത്ഥം,Sulphate of Zinc,Zinci Sulphidum,,2
432.,പുരാണകിട്ടം,Dress  Iron,Ferroso-ferric oxide,,1300
433.,പൊങ്കാരം,,Borax,,400
434.,മനയോല,Red  Orpiment,,,100
435.,മാക്കീരക്കല്ല്,Iron Pyrites Calcined,,,100
436.,മുള്‍ട്ടാണി മിട്ടി,Fullers  Earth,,,10
437.,രസം,Mercury,,,50
438.,വിളയുപ്പ്,,,,600
439.,വെള്ളിപ്പൊടി,Silver  Powder,,,1
440.,സ്ഫടികം,Quartz,,,0.100
441.,സള്‍ഫര്‍ ഐ.പി (നെല്ലിക്കാഗന്ധകം),Purified Sulpher,Sulpher,,100
442.,സ്വർണം 24 CT,GOLD 24 CT,,,1
443.,സഹസ്രവേദി,Sahasravedhi,,,500
,"Bones, Nail Etc. (അസ്ഥി, ദന്തം, ഖുരം, നഖം മുതലായവ)",,,,
444.,ആട്ടിന്‍ കൊമ്പ്,Goat’s Horn,,,5
445.,കടല്‍നുര,Cuttle Fish Bone,,,500
446.,ചുണ്ണാമ്പ്,Lime,,,300
447.,പവിഴക്കൊമ്പ്,Red  Coral,,,10
448.,പശുവിന്‍ കൊമ്പ്,Cow’s  Horn,,,1
449.,പോത്തിന്‍കൊമ്പ്,Buffalo Horn,,,2
450.,മുത്തുച്ചിപ്പി,Calx of Pearl oyster Shells,,,150
451.,മുത്തുചിപ്പി ഭസ്മം,Pearl oyster,,,5
452.,ശംഖ്,Congue,,,15
,"EXCRETA  (മൂത്രങ്ങള്‍, പുരീഷങ്ങള്‍ മുതലായവ ",,,,
453.,ആട്ടിന്‍ മൂത്രം (ലിറ്റര്‍),Goat’s Urine,,,11500
454.,കണ്ടിവെണ്ണ ഒന്നാതരം,Kandivenna,,,200
455.,ഗോമൂത്രം (ലിറ്റര്‍),Cow’s  Urine,,,33000
456.,പശുവിന്‍ ചാണകം,Cow  Dung,,,50
,"Milk & Milk products (ക്ഷീരങ്ങള്‍, ഘൃതങ്ങള്‍)",,,,
457.,എരുമ നെയ്യ്,Buffalo’s Ghee,,,500
458.,എരുമ പാല്‍ (ലിറ്റര്‍),Buffalo’s Milk ,,,"2500
9500"
459.,പശുവിൻ നെയ്യ്  (see specification),Cow Ghee (see specification),,,"38,000"
460.,പശുവിൻ പാൽ (see specification),Cow's Milk (see specification),,,"6,40,000"
461.,പശുവിന്‍ മോര് (ലിറ്റര്‍),Butter Milk,,,
,Fire wood (വിറക്),,,,
462.,അട്ടക്കരി,Soot,,,300
463.,ചാണകവരളി (Nos),,,,10000
464.,നാടന്‍ കരി,,,,150
465.,പുളി വിറക് ഉണങ്ങിയത്,,,,21000
,Miscellaneous (പലവക),,,,
466.,അഭ്ര ഭസ്മം,Abhra  Bhasmam,,,10
467.,ഇലിപ്പ പിണ്ണാക്ക്,Oil cake of Mahua tree,Oil cake of Madhuca longifolia,,25
468.,ഏറോസില്‍ (ഐ.പി),Aerosil  I. P..,,,200
469.,ഐസോപ്രൊപ്പൈല്‍ ആല്‍ക്കഹോള്‍,Iso propyl Alchol,,,25
470.,ഓപ്പിയം,Opium,,,25
471.,ഓയില്‍ ഗ്രീന്‍ കളര്‍,Oil Green Color,,,1Kg.
472.,കന്മദ ഭസ്മം,Kanmada  Bhasmam,,,25
473.,ക്ളോവ് ഓയില്‍,Clove Oil,,,5 Ltr
474.,കാന്ത സിന്ദൂരം,Kantha  Sindhooram,,,2
475.,കോക്കനട്ട് ഓയില്‍ പെര്‍ഫ്യും,Coconut  Oil  Perfume,,,---
476.,ഗം അക്കേഷ്യ (ഐ.പി),Gum Accacia I. P..,,,1000
477.,ഗ്ളിസറിന്‍ (ഐ.പി),Glycerin (I. P.),,,40
478.,ചോക്കലേറ്റ് ഫ്ളേവര്‍,Chocolate  Flavour,,,5
479.,ജലാറ്റിന്‍ (ഐ.പി),Jalatin  I. P..,,,100
480.,ടാല്‍ക് (ഐ.പി),Talc  I. P..,,,150
481.,ഡി.സി.പി. ഐ.പി (ഡൈ ബേസിക്ക് കാല്‍സ്യം ഫോസ്ഫേറ്റ്),D C P  I. P.Dibasic Calcium Phosphate I. P.,,,1500
482.,ഡെക്സ്ട്രിന്‍ (ഐ.പി),Dextrin  I. P..,,,1500
483.,നാഗഭസ്മം,Naga  Bhasmam,,,10
484.,പ്രവാള ഭസ്മം,Pravala  Bhasmam,,,35
485.,പ്രൊപ്പൈല്‍ പാരാബെല്‍സോഡിയം (ഐ.പി),Propyl Paraben Sodium (I. P.),,,100
486.,പ്രൊപ്ളീന്‍ ഗ്ളൈക്കോള്‍ (ഐ.പി),Proplene Glycol I. P.,,,100
487.,പെപ്പര്‍മിന്‍റ് ഫ്ളേവര്‍,Peppermint  Flavour,,,5  Ltr.
488.,പെര്‍ഫ്യും ഇറ്റേര്‍ണിറ്റി,Perfume  Eternity,,,5 Ltr.
489.,പെര്‍ഫ്യും ജാസ് ഡീലക്സ്/ജാസ്മിന്‍ 94 പെര്‍ഫ്യും,Perfume Jass (Deluxe)/Jasmin  94  Perfume,,,40Ltr
490.,പെര്‍ഫ്യും മസ്ക്ക്,Perfume  Musk,,,40Ltr
491.,പൊട്ടാസ്യം മെറ്റാബി സള്‍ഫേറ്റ് (ഐ.പി),Pottasium Metabi Sulphate I.P(Merk Company),,,500
492.,പോളിവിനൈല്‍ പൈറോളിഡോണ്‍,Polyvinyl pyrrolidine (I.P.),,,250
493.,ഫെന്നല്‍ ഫ്ളേവര്‍,Fennel Flavour,,,5 Ltr
494.,മഗ്നീഷ്യം സ്റ്റീറേറ്റ് (ഐ.പി),Magnesium Sterate   I. P..,,,100
495.,മീഥൈല്‍ പാരാബെന്‍ സോഡിയം (ഐ.പി),Methyl Paraben Sodium (I. P.),,,300
496.,മീഥൈല്‍ സാലിസിലേറ്റ് (ഐ.പി),Methyl salicylate (I. P.),,,50Ltr
497.,മെന്തോള്‍ ക്രസ്റ്റല്‍സ്(ഐ.പി),Menthol Crystals   I. P.,,,150
498.,മൈക്രോ ക്രിസ്റ്റലിന്‍ സെല്ലുലോസ് (ഐ.പി),Micro Cristalin cellulose(I. P.),,,---
499.,റെക്ടിഫൈഡ് സ്പിരിറ്റ്,Rectified  spirit,,,70Ltr
500.,ലാക്ടോസ്(ഐ.പി),Lactose I. P..,,,1000
501.,ലിക്വിഡ് ഗ്ലൂക്കോസ് (ഐ.പി),Liquid Glucose (I. P.),,,---
502.,ലൈറ്റ് മഗ്നീഷ്യം കാര്‍ബണൈറ്റ്(ഐ.പി) ,Light Magnesium Carbonate I.P,,,700
503.,ലോഹ ഭസ്മം,Loha bhasmam,,,350
504.,വാനില ഫ്ളേവര്‍,Vanila Flavour,,,5 Ltr
505.,വൈറ്റ് പെട്രോളിയം ജെല്ലി(ഐ.പി),White Petroleum Jelly   I. P.,,,3600
506.,ഷെല്ലാക്ക് (ഐ.പി),Shellac (I.P.),,,---
507.,സ്റ്റാര്‍ച്ച് ഐ.പി,Starch  I. P.,,,1000
508.,സ്റ്റെറൈല്‍ ആള്‍ക്കഹോള്‍ (ഐ.പി),Steryl Alcohol (I.P.),,,180
509.,സ്വര്‍ണ്ണമാക്ഷിക ഭസ്മം,Swarnamakshika  Bhasmam,,,5
510.,സി.എം. സി.സോഡിയം (ഐ.പി),C.M.C.Sodium  (I.P.),,,---
511.,സോഡിയം ബെന്‍സോവേറ്റ്(ഐ.പി),Sodium  Benzoate,,,2500
512.,സോഡിയം ലോറല്‍ സള്‍ഫേറ്റ് (ഐ.പി),Sodium Lauryl sulphate (I.P.),,,10
513.,സോഡിയം സ്റ്റാര്‍ച്ച് ഗ്ളൈക്കോലയ്റ്റ്,Sodium starch Glycolate I. P.,,,---
514.,ഹെവി മഗ്നീഷ്യം ഓക്സൈഡ് ഐ.പി,Heavy Magnsium Oxide I. P.,,,---
,Leaves (പത്രങ്ങള്‍),,,,
515.,താലീസപത്രം,Himalayam Silver Fir Leaves,Abies webbiana,,1400
516.,നീലയമരിയില പച്ച ,True Indigo (fresh),Indigofera tinctoria,,"6,500"
517.,പുളിഞെരമ്പ് ഉണക്ക ,Tamarind Tree (dried),Tamarindus indicus,,"3,200"
518.,പുളിയില പച്ച ( leaves only),Tamarind (fresh),Tamarindus indicus,,"46,000"
519.,വെറ്റില പച്ച ,Betel Leaf (fresh),Piper betle,,"15,000"
520.,ശീമപ്പച്ചില,Cassia  Cinnomon,Cinnamomum  tamala,,3500
,Oils (സ്നേഹ ദ്രവ്യങ്ങള്‍),,,,
521.,ആവണക്കെണ്ണ ( ശുദ്ധി ചെയ്തത് )  See specification,Castor Oil (purified),Ricinus communis,,"6,500"
522.,ആവണക്കെണ്ണ (ORDINARY)See specification,Castor Oil (ordinary),"Ricinus communis,Linn",,"19,000"
523.,എണ്ണ നാടൻ ( To be supplied in Tankers) see specification,Gingelly Oil ( To be supplied in Tankers) ,Sesamum indicum,,"2,60,000"
524.,കടുകെണ്ണ,Mustard Oil,Brassica nigra,,1000
525.,മരോട്ടി എണ്ണ,Oil gungle Almond,Hydno  carpuspetandra,,500
526.,വെര്‍ജിന്‍ വെളിച്ചെണ്ണ,Virgian Coconut Oil,,,300
527.,വെളിച്ചെണ്ണ ( To be supplied in Tankers) see specification,Coconut Oil ( To be supplied in Tankers)                             ,Cocos nucifera,,"3,00,000"
,Other Items  (മറ്റു ഇനങ്ങള്‍),,,,
528.,ആട്ടിൻമാംസം ,Mutton,,,"3,000"
529.,കൽക്കണ്ടം ,Sugar Candy,,,"25,000"
530.,തേൻ (see specification),Honey (see specification),Mel,,"78,000"
531.,നന്‍മുത്ത്,Pearl,,,1
532.,പഞ്ചസാര ,Sugar,,,"1,10,000"
533.,പുല്‍തൈലം,,,,75
534.,ശർക്കര ഉണ്ട (1ST QUALITY),Jaggery Ist quality,,,"1,00,000"
535.,ശർക്കര പൗഡർ (1ST QUALITY) See specification,Jaggery Powder (Ist quality),,,"5,00,000"
